a_group2
a_group3
a_group5
a_group6
a_group7
a_group11
a_group12
a_group13
a_group14
a_group15
a_group16
a_group17
a_group18
a_group19
a_group25
a_group26
a_group27
a_group28
a_group29
a_group30
a_group32
a_group33
a_group34
a_group35
a_group36
a_group37
a_group38
a_group39
a_group40
a_group42
a_group43
a_group44
a_group45
a_group46
a_group47
a_group49
a_group51
a_group52
a_group54
a_group55
a_group56
a_group58
a_group59
a_group60
a_group63
a_group64
a_group65
a_group66
a_group67
a_group68
a_group69
a_group70
a_group71
a_group72
a_group73
a_group74
a_group75
a_group77
a_group79
a_group80
a_group81
a_group82
a_group83
a_group84
a_group85
a_group86
a_group88
a_group90
a_group91
a_group92
a_group95
a_group96
a_group97
a_group99
a_group100
a_group101
a_group102
a_group103
a_group104
a_group105
a_group107
a_group108
a_group109
a_group110
a_group111
a_group112
a_group114
a_group115
a_group116
a_group117
a_group118
a_group119
a_group120
a_group121
a_group122
a_group123
a_group124
a_group125
a_group126
a_group128
a_group130
a_group132
a_group134
a_group135
a_group136
a_group137
a_group138
a_group139
a_group140
a_group143
a_group144
a_group145
a_group146
a_group147
a_group149
a_group150
a_group151
a_group153
a_group155
a_group158
a_group161
a_group163
a_group164
a_group165
a_group166
a_group167
a_group168
a_group169
a_group170
a_group171
a_group172
a_group173
a_group175
a_group176
a_group177
a_group178
a_group179
a_group180
a_group181
a_group182
a_group183
a_group184
a_group186
a_group187
a_group188
a_group189
a_group191
a_group193
a_group194
a_group195
a_group196
a_group197
a_group198
a_group199
a_group200
b_group1
b_group2
b_group5
b_group7
b_group9
b_group10
b_group11
b_group13
b_group14
b_group15
b_group16
b_group17
b_group18
b_group26
b_group29
b_group30
b_group31
b_group34
b_group36
b_group37
